Introduction to MyBioconductorPackage • MyBioconductorPackage
…
out <- get_packages_by_views(c("Spatial", "SingleCell", "Sequencing"))
#> 'getOption("repos")' replaces Bioconductor standard repositories, see
#> 'help("repositories", package = "BiocManager")' for details.
#> Replacement repositories:
#>     CRAN: https://p3m.dev/cran/__linux__/noble/latest
str(out)
#>  chr [1:13] "DESpace" "knowYourCG" "miRspongeR" "poem" "retrofit" ...

Getting biocViews co-occurrence counts

library("dplyr")
out <- get_view_cooccurrences("Spatial")
out |> arrange(desc(value))
#> # A tibble: 65 × 2
#>    package            value
#>    <chr>              <int>
#>  1 Transcriptomics       51
#>  2 SingleCell            49
#>  3 GeneExpression        42
#>  4 DataImport            18
#>  5 RNASeq                15
#>  6 Clustering            14
#>  7 ImmunoOncology        10
#>  8 DataRepresentation     8
#>  9 CellBasedAssays        7
#> 10 QualityControl         7
#> # ℹ 55 more rows
…
Getting biocViews representation over time

The number of packages annotated by a single biocView term (or one of
its children) can be obtained as follows:

out <- get_view_counts_over_time("Spatial")
#> 'getOption("repos")' replaces Bioconductor standard repositories, see
#> 'help("repositories", package = "BiocManager")' for details.
#> Replacement repositories:
#>     CRAN: https://p3m.dev/cran/__linux__/noble/latest
#> Checking for Bioc Release Update
out
#> # A tibble: 40 × 2
#>    date       count
#>    <date>     <int>
#>  1 2006-01-01     4
#>  2 2006-07-01     4
#>  3 2007-01-01     4
#>  4 2007-07-01     4
#>  5 2008-01-01     4
#>  6 2008-07-01     4
#>  7 2009-01-01     4
#>  8 2009-07-01     4
#>  9 2010-01-01     4
#> 10 2010-07-01     4
#> # ℹ 30 more rows
…
Count of ‘Spatial’ packages over time.

To get the counts for multiple biocViews terms, use
get_views_counts_over_time():

out <- get_views_counts_over_time(c("Spatial", "SingleCell"))
#> 'getOption("repos")' replaces Bioconductor standard repositories, see
#> 'help("repositories", package = "BiocManager")' for details.
#> Replacement repositories:
#>     CRAN: https://p3m.dev/cran/__linux__/noble/latest
#> Checking for Bioc Release Update
out
#> # A tibble: 40 × 3
#>    date       Spatial SingleCell
#>    <date>       <int>      <int>
#>  1 2006-01-01       4         13
#>  2 2006-07-01       4         13
#>  3 2007-01-01       4         13
#>  4 2007-07-01       4         13
#>  5 2008-01-01       4         13
#>  6 2008-07-01       4         13
#>  7 2009-01-01       4         14
#>  8 2009-07-01       4         14
#>  9 2010-01-01       4         14
#> 10 2010-07-01       4         14
#> # ℹ 30 more rows
…
